-- Merging decision tree log ---
provider#de.appplant.cordova.plugin.notification.util.AssetProvider
INJECTED from C:\Users\Austin Felipe\Documents\Projetos\moveleiros-chat-mobile-hybrid\platforms\android\app\src\main\AndroidManifest.xml:28:9-30:20
	android:grantUriPermissions
		ADDED from C:\Users\Austin Felipe\Documents\Projetos\moveleiros-chat-mobile-hybrid\platforms\android\app\src\main\AndroidManifest.xml:28:92-126
	android:authorities
		INJECTED from C:\Users\Austin Felipe\Documents\Projetos\moveleiros-chat-mobile-hybrid\platforms\android\app\src\main\AndroidManifest.xml
		ADDED from C:\Users\Austin Felipe\Documents\Projetos\moveleiros-chat-mobile-hybrid\platforms\android\app\src\main\AndroidManifest.xml:28:19-66
	android:exported
		ADDED from C:\Users\Austin Felipe\Documents\Projetos\moveleiros-chat-mobile-hybrid\platforms\android\app\src\main\AndroidManifest.xml:28:67-91
	android:name
		ADDED from C:\Users\Austin Felipe\Documents\Projetos\moveleiros-chat-mobile-hybrid\platforms\android\app\src\main\AndroidManifest.xml:28:127-200
manifest
ADDED from C:\Users\Austin Felipe\Documents\Projetos\moveleiros-chat-mobile-hybrid\platforms\android\app\src\main\AndroidManifest.xml:2:1-37:12
INJECTED from C:\Users\Austin Felipe\Documents\Projetos\moveleiros-chat-mobile-hybrid\platforms\android\app\src\main\AndroidManifest.xml:2:1-37:12
INJECTED from C:\Users\Austin Felipe\Documents\Projetos\moveleiros-chat-mobile-hybrid\platforms\android\app\src\main\AndroidManifest.xml:2:1-37:12
INJECTED from C:\Users\Austin Felipe\Documents\Projetos\moveleiros-chat-mobile-hybrid\platforms\android\app\src\main\AndroidManifest.xml:2:1-37:12
MERGED from [me.leolin:ShortcutBadger:1.1.21] C:\Users\Austin Felipe\.gradle\caches\transforms-1\files-1.1\ShortcutBadger-1.1.21.aar\fc695e2f30ee1bc2821deb75c30c515d\AndroidManifest.xml:2:1-52:12
MERGED from [com.android.volley:volley:1.1.0] C:\Users\Austin Felipe\.gradle\caches\transforms-1\files-1.1\volley-1.1.0.aar\507dd46c3aa53cf40a2f99fbb0bf9db1\AndroidManifest.xml:2:1-11:12
MERGED from [com.google.firebase:firebase-core:12.0.1] C:\Users\Austin Felipe\.gradle\caches\transforms-1\files-1.1\firebase-core-12.0.1.aar\0e5db7f2382de29681dbee371918f19f\AndroidManifest.xml:2:1-6:12
MERGED from [com.google.firebase:firebase-messaging:12.0.1] C:\Users\Austin Felipe\.gradle\caches\transforms-1\files-1.1\firebase-messaging-12.0.1.aar\f9dc0607c9963c18979f48fcef0b6eb9\AndroidManifest.xml:17:1-37:12
MERGED from [com.google.firebase:firebase-analytics:12.0.1] C:\Users\Austin Felipe\.gradle\caches\transforms-1\files-1.1\firebase-analytics-12.0.1.aar\c76956ff32b1d678e10599d97af3cb0e\AndroidManifest.xml:17:1-54:12
MERGED from [com.google.firebase:firebase-analytics-impl:12.0.1] C:\Users\Austin Felipe\.gradle\caches\transforms-1\files-1.1\firebase-analytics-impl-12.0.1.aar\59b73a10dc08074dc31cb8c272bfe2e3\AndroidManifest.xml:17:1-40:12
MERGED from [com.google.firebase:firebase-iid:12.0.1] C:\Users\Austin Felipe\.gradle\caches\transforms-1\files-1.1\firebase-iid-12.0.1.aar\55f867a5d5e1f2e268d4d5b22e3e777b\AndroidManifest.xml:17:1-59:12
MERGED from [com.google.firebase:firebase-common:12.0.1] C:\Users\Austin Felipe\.gradle\caches\transforms-1\files-1.1\firebase-common-12.0.1.aar\11291156a855e879758037b4e2a9f0d8\AndroidManifest.xml:2:1-15:12
MERGED from [com.google.android.gms:play-services-tasks:12.0.1] C:\Users\Austin Felipe\.gradle\caches\transforms-1\files-1.1\play-services-tasks-12.0.1.aar\104f6e28d2e850944945f387fa8f08cc\AndroidManifest.xml:2:1-9:12
MERGED from [com.google.android.gms:play-services-basement:12.0.1] C:\Users\Austin Felipe\.gradle\caches\transforms-1\files-1.1\play-services-basement-12.0.1.aar\3adea1be03db2cbe777bd1a7f27ce66d\AndroidManifest.xml:17:1-28:12
MERGED from [com.android.support:support-v4:26.1.0] C:\Users\Austin Felipe\.gradle\caches\transforms-1\files-1.1\support-v4-26.1.0.aar\3450bc25881d94264f687789577a7b6c\AndroidManifest.xml:17:1-31:12
MERGED from [:CordovaLib] C:\Users\Austin Felipe\Documents\Projetos\moveleiros-chat-mobile-hybrid\platforms\android\CordovaLib\build\intermediates\manifests\full\release\AndroidManifest.xml:20:1-27:12
MERGED from [com.google.firebase:firebase-messaging-license:12.0.1] C:\Users\Austin Felipe\.gradle\caches\transforms-1\files-1.1\firebase-messaging-license-12.0.1.aar\8761c32232fc713840cc780bb40fe8b6\AndroidManifest.xml:17:1-24:12
MERGED from [com.android.support:support-media-compat:26.1.0] C:\Users\Austin Felipe\.gradle\caches\transforms-1\files-1.1\support-media-compat-26.1.0.aar\55f97cd12366c211c1317e6782d8d2e9\AndroidManifest.xml:17:1-31:12
MERGED from [com.android.support:support-fragment:26.1.0] C:\Users\Austin Felipe\.gradle\caches\transforms-1\files-1.1\support-fragment-26.1.0.aar\1515ad95a0a1764d9d64e052ba83826f\AndroidManifest.xml:17:1-31:12
MERGED from [com.android.support:support-core-utils:26.1.0] C:\Users\Austin Felipe\.gradle\caches\transforms-1\files-1.1\support-core-utils-26.1.0.aar\540e9286b6b98f84c2f13994d144de56\AndroidManifest.xml:17:1-31:12
MERGED from [com.android.support:support-core-ui:26.1.0] C:\Users\Austin Felipe\.gradle\caches\transforms-1\files-1.1\support-core-ui-26.1.0.aar\ff5ace8f00bc04ef9094f5e6c1f71a76\AndroidManifest.xml:17:1-31:12
MERGED from [com.android.support:support-compat:26.1.0] C:\Users\Austin Felipe\.gradle\caches\transforms-1\files-1.1\support-compat-26.1.0.aar\07f74224aee242f70fa1b0615c801bbd\AndroidManifest.xml:17:1-31:12
MERGED from [com.google.firebase:firebase-iid-license:12.0.1] C:\Users\Austin Felipe\.gradle\caches\transforms-1\files-1.1\firebase-iid-license-12.0.1.aar\4f814633a316ba9a700675d85129f968\AndroidManifest.xml:17:1-24:12
MERGED from [com.google.android.gms:play-services-basement-license:12.0.1] C:\Users\Austin Felipe\.gradle\caches\transforms-1\files-1.1\play-services-basement-license-12.0.1.aar\5741085387cee26cd9a75d1dbc1bd048\AndroidManifest.xml:17:1-24:12
MERGED from [com.google.firebase:firebase-common-license:12.0.1] C:\Users\Austin Felipe\.gradle\caches\transforms-1\files-1.1\firebase-common-license-12.0.1.aar\93e9d9c5e800dd8b34548d664dd5bfcf\AndroidManifest.xml:17:1-24:12
MERGED from [android.arch.lifecycle:runtime:1.0.0] C:\Users\Austin Felipe\.gradle\caches\transforms-1\files-1.1\runtime-1.0.0.aar\98255a8445730bbe6be2b5f6c207886a\AndroidManifest.xml:17:1-30:12
MERGED from [com.google.android.gms:play-services-tasks-license:12.0.1] C:\Users\Austin Felipe\.gradle\caches\transforms-1\files-1.1\play-services-tasks-license-12.0.1.aar\7315cfe706dd5b55e4dc3579f3784ddb\AndroidManifest.xml:17:1-24:12
MERGED from [com.google.firebase:firebase-analytics-license:12.0.1] C:\Users\Austin Felipe\.gradle\caches\transforms-1\files-1.1\firebase-analytics-license-12.0.1.aar\5badfb845790ec9aae8164e8b4ac98e3\AndroidManifest.xml:17:1-24:12
MERGED from [com.google.firebase:firebase-analytics-impl-license:12.0.1] C:\Users\Austin Felipe\.gradle\caches\transforms-1\files-1.1\firebase-analytics-impl-license-12.0.1.aar\c54588df977b187edd37e45d289bc1c7\AndroidManifest.xml:17:1-24:12
INJECTED from C:\Users\Austin Felipe\Documents\Projetos\moveleiros-chat-mobile-hybrid\platforms\android\app\src\main\AndroidManifest.xml:2:1-37:12
INJECTED from C:\Users\Austin Felipe\Documents\Projetos\moveleiros-chat-mobile-hybrid\platforms\android\app\src\main\AndroidManifest.xml:2:1-37:12
INJECTED from C:\Users\Austin Felipe\Documents\Projetos\moveleiros-chat-mobile-hybrid\platforms\android\app\src\main\AndroidManifest.xml:2:1-37:12
	package
		ADDED from C:\Users\Austin Felipe\Documents\Projetos\moveleiros-chat-mobile-hybrid\platforms\android\app\src\main\AndroidManifest.xml:2:100-139
		INJECTED from C:\Users\Austin Felipe\Documents\Projetos\moveleiros-chat-mobile-hybrid\platforms\android\app\src\main\AndroidManifest.xml
		INJECTED from C:\Users\Austin Felipe\Documents\Projetos\moveleiros-chat-mobile-hybrid\platforms\android\app\src\main\AndroidManifest.xml
	android:versionName
		ADDED from C:\Users\Austin Felipe\Documents\Projetos\moveleiros-chat-mobile-hybrid\platforms\android\app\src\main\AndroidManifest.xml:2:71-99
		INJECTED from C:\Users\Austin Felipe\Documents\Projetos\moveleiros-chat-mobile-hybrid\platforms\android\app\src\main\AndroidManifest.xml
		INJECTED from C:\Users\Austin Felipe\Documents\Projetos\moveleiros-chat-mobile-hybrid\platforms\android\app\src\main\AndroidManifest.xml
	android:hardwareAccelerated
		ADDED from C:\Users\Austin Felipe\Documents\Projetos\moveleiros-chat-mobile-hybrid\platforms\android\app\src\main\AndroidManifest.xml:2:11-45
	xmlns:android
		ADDED from C:\Users\Austin Felipe\Documents\Projetos\moveleiros-chat-mobile-hybrid\platforms\android\app\src\main\AndroidManifest.xml:2:140-198
	android:versionCode
		ADDED from C:\Users\Austin Felipe\Documents\Projetos\moveleiros-chat-mobile-hybrid\platforms\android\app\src\main\AndroidManifest.xml:2:46-70
		INJECTED from C:\Users\Austin Felipe\Documents\Projetos\moveleiros-chat-mobile-hybrid\platforms\android\app\src\main\AndroidManifest.xml
		INJECTED from C:\Users\Austin Felipe\Documents\Projetos\moveleiros-chat-mobile-hybrid\platforms\android\app\src\main\AndroidManifest.xml
supports-screens
ADDED from C:\Users\Austin Felipe\Documents\Projetos\moveleiros-chat-mobile-hybrid\platforms\android\app\src\main\AndroidManifest.xml:3:5-191
	android:largeScreens
		ADDED from C:\Users\Austin Felipe\Documents\Projetos\moveleiros-chat-mobile-hybrid\platforms\android\app\src\main\AndroidManifest.xml:3:49-76
	android:smallScreens
		ADDED from C:\Users\Austin Felipe\Documents\Projetos\moveleiros-chat-mobile-hybrid\platforms\android\app\src\main\AndroidManifest.xml:3:132-159
	android:normalScreens
		ADDED from C:\Users\Austin Felipe\Documents\Projetos\moveleiros-chat-mobile-hybrid\platforms\android\app\src\main\AndroidManifest.xml:3:77-105
	android:xlargeScreens
		ADDED from C:\Users\Austin Felipe\Documents\Projetos\moveleiros-chat-mobile-hybrid\platforms\android\app\src\main\AndroidManifest.xml:3:160-188
	android:resizeable
		ADDED from C:\Users\Austin Felipe\Documents\Projetos\moveleiros-chat-mobile-hybrid\platforms\android\app\src\main\AndroidManifest.xml:3:106-131
	android:anyDensity
		ADDED from C:\Users\Austin Felipe\Documents\Projetos\moveleiros-chat-mobile-hybrid\platforms\android\app\src\main\AndroidManifest.xml:3:23-48
uses-permission#android.permission.INTERNET
ADDED from C:\Users\Austin Felipe\Documents\Projetos\moveleiros-chat-mobile-hybrid\platforms\android\app\src\main\AndroidManifest.xml:4:5-67
MERGED from [com.google.firebase:firebase-analytics:12.0.1] C:\Users\Austin Felipe\.gradle\caches\transforms-1\files-1.1\firebase-analytics-12.0.1.aar\c76956ff32b1d678e10599d97af3cb0e\AndroidManifest.xml:23:5-67
MERGED from [com.google.firebase:firebase-analytics:12.0.1] C:\Users\Austin Felipe\.gradle\caches\transforms-1\files-1.1\firebase-analytics-12.0.1.aar\c76956ff32b1d678e10599d97af3cb0e\AndroidManifest.xml:23:5-67
MERGED from [com.google.firebase:firebase-analytics-impl:12.0.1] C:\Users\Austin Felipe\.gradle\caches\transforms-1\files-1.1\firebase-analytics-impl-12.0.1.aar\59b73a10dc08074dc31cb8c272bfe2e3\AndroidManifest.xml:23:5-67
MERGED from [com.google.firebase:firebase-analytics-impl:12.0.1] C:\Users\Austin Felipe\.gradle\caches\transforms-1\files-1.1\firebase-analytics-impl-12.0.1.aar\59b73a10dc08074dc31cb8c272bfe2e3\AndroidManifest.xml:23:5-67
MERGED from [com.google.firebase:firebase-iid:12.0.1] C:\Users\Austin Felipe\.gradle\caches\transforms-1\files-1.1\firebase-iid-12.0.1.aar\55f867a5d5e1f2e268d4d5b22e3e777b\AndroidManifest.xml:23:5-67
MERGED from [com.google.firebase:firebase-iid:12.0.1] C:\Users\Austin Felipe\.gradle\caches\transforms-1\files-1.1\firebase-iid-12.0.1.aar\55f867a5d5e1f2e268d4d5b22e3e777b\AndroidManifest.xml:23:5-67
	android:name
		ADDED from C:\Users\Austin Felipe\Documents\Projetos\moveleiros-chat-mobile-hybrid\platforms\android\app\src\main\AndroidManifest.xml:4:22-64
application
ADDED from C:\Users\Austin Felipe\Documents\Projetos\moveleiros-chat-mobile-hybrid\platforms\android\app\src\main\AndroidManifest.xml:5:5-34:19
MERGED from [com.android.volley:volley:1.1.0] C:\Users\Austin Felipe\.gradle\caches\transforms-1\files-1.1\volley-1.1.0.aar\507dd46c3aa53cf40a2f99fbb0bf9db1\AndroidManifest.xml:9:5-20
MERGED from [com.android.volley:volley:1.1.0] C:\Users\Austin Felipe\.gradle\caches\transforms-1\files-1.1\volley-1.1.0.aar\507dd46c3aa53cf40a2f99fbb0bf9db1\AndroidManifest.xml:9:5-20
MERGED from [com.google.firebase:firebase-core:12.0.1] C:\Users\Austin Felipe\.gradle\caches\transforms-1\files-1.1\firebase-core-12.0.1.aar\0e5db7f2382de29681dbee371918f19f\AndroidManifest.xml:5:5-20
MERGED from [com.google.firebase:firebase-core:12.0.1] C:\Users\Austin Felipe\.gradle\caches\transforms-1\files-1.1\firebase-core-12.0.1.aar\0e5db7f2382de29681dbee371918f19f\AndroidManifest.xml:5:5-20
MERGED from [com.google.firebase:firebase-messaging:12.0.1] C:\Users\Austin Felipe\.gradle\caches\transforms-1\files-1.1\firebase-messaging-12.0.1.aar\f9dc0607c9963c18979f48fcef0b6eb9\AndroidManifest.xml:22:5-35:19
MERGED from [com.google.firebase:firebase-messaging:12.0.1] C:\Users\Austin Felipe\.gradle\caches\transforms-1\files-1.1\firebase-messaging-12.0.1.aar\f9dc0607c9963c18979f48fcef0b6eb9\AndroidManifest.xml:22:5-35:19
MERGED from [com.google.firebase:firebase-analytics:12.0.1] C:\Users\Austin Felipe\.gradle\caches\transforms-1\files-1.1\firebase-analytics-12.0.1.aar\c76956ff32b1d678e10599d97af3cb0e\AndroidManifest.xml:27:5-52:19
MERGED from [com.google.firebase:firebase-analytics:12.0.1] C:\Users\Austin Felipe\.gradle\caches\transforms-1\files-1.1\firebase-analytics-12.0.1.aar\c76956ff32b1d678e10599d97af3cb0e\AndroidManifest.xml:27:5-52:19
MERGED from [com.google.firebase:firebase-analytics-impl:12.0.1] C:\Users\Austin Felipe\.gradle\caches\transforms-1\files-1.1\firebase-analytics-impl-12.0.1.aar\59b73a10dc08074dc31cb8c272bfe2e3\AndroidManifest.xml:27:5-38:19
MERGED from [com.google.firebase:firebase-analytics-impl:12.0.1] C:\Users\Austin Felipe\.gradle\caches\transforms-1\files-1.1\firebase-analytics-impl-12.0.1.aar\59b73a10dc08074dc31cb8c272bfe2e3\AndroidManifest.xml:27:5-38:19
MERGED from [com.google.firebase:firebase-iid:12.0.1] C:\Users\Austin Felipe\.gradle\caches\transforms-1\files-1.1\firebase-iid-12.0.1.aar\55f867a5d5e1f2e268d4d5b22e3e777b\AndroidManifest.xml:34:5-57:19
MERGED from [com.google.firebase:firebase-iid:12.0.1] C:\Users\Austin Felipe\.gradle\caches\transforms-1\files-1.1\firebase-iid-12.0.1.aar\55f867a5d5e1f2e268d4d5b22e3e777b\AndroidManifest.xml:34:5-57:19
MERGED from [com.google.firebase:firebase-common:12.0.1] C:\Users\Austin Felipe\.gradle\caches\transforms-1\files-1.1\firebase-common-12.0.1.aar\11291156a855e879758037b4e2a9f0d8\AndroidManifest.xml:7:5-13:19
MERGED from [com.google.firebase:firebase-common:12.0.1] C:\Users\Austin Felipe\.gradle\caches\transforms-1\files-1.1\firebase-common-12.0.1.aar\11291156a855e879758037b4e2a9f0d8\AndroidManifest.xml:7:5-13:19
MERGED from [com.google.android.gms:play-services-tasks:12.0.1] C:\Users\Austin Felipe\.gradle\caches\transforms-1\files-1.1\play-services-tasks-12.0.1.aar\104f6e28d2e850944945f387fa8f08cc\AndroidManifest.xml:7:5-20
MERGED from [com.google.android.gms:play-services-tasks:12.0.1] C:\Users\Austin Felipe\.gradle\caches\transforms-1\files-1.1\play-services-tasks-12.0.1.aar\104f6e28d2e850944945f387fa8f08cc\AndroidManifest.xml:7:5-20
MERGED from [com.google.android.gms:play-services-basement:12.0.1] C:\Users\Austin Felipe\.gradle\caches\transforms-1\files-1.1\play-services-basement-12.0.1.aar\3adea1be03db2cbe777bd1a7f27ce66d\AndroidManifest.xml:22:5-26:19
MERGED from [com.google.android.gms:play-services-basement:12.0.1] C:\Users\Austin Felipe\.gradle\caches\transforms-1\files-1.1\play-services-basement-12.0.1.aar\3adea1be03db2cbe777bd1a7f27ce66d\AndroidManifest.xml:22:5-26:19
MERGED from [com.android.support:support-v4:26.1.0] C:\Users\Austin Felipe\.gradle\caches\transforms-1\files-1.1\support-v4-26.1.0.aar\3450bc25881d94264f687789577a7b6c\AndroidManifest.xml:25:5-29:19
MERGED from [com.android.support:support-v4:26.1.0] C:\Users\Austin Felipe\.gradle\caches\transforms-1\files-1.1\support-v4-26.1.0.aar\3450bc25881d94264f687789577a7b6c\AndroidManifest.xml:25:5-29:19
MERGED from [com.google.firebase:firebase-messaging-license:12.0.1] C:\Users\Austin Felipe\.gradle\caches\transforms-1\files-1.1\firebase-messaging-license-12.0.1.aar\8761c32232fc713840cc780bb40fe8b6\AndroidManifest.xml:22:5-20
MERGED from [com.google.firebase:firebase-messaging-license:12.0.1] C:\Users\Austin Felipe\.gradle\caches\transforms-1\files-1.1\firebase-messaging-license-12.0.1.aar\8761c32232fc713840cc780bb40fe8b6\AndroidManifest.xml:22:5-20
MERGED from [com.android.support:support-media-compat:26.1.0] C:\Users\Austin Felipe\.gradle\caches\transforms-1\files-1.1\support-media-compat-26.1.0.aar\55f97cd12366c211c1317e6782d8d2e9\AndroidManifest.xml:25:5-29:19
MERGED from [com.android.support:support-media-compat:26.1.0] C:\Users\Austin Felipe\.gradle\caches\transforms-1\files-1.1\support-media-compat-26.1.0.aar\55f97cd12366c211c1317e6782d8d2e9\AndroidManifest.xml:25:5-29:19
MERGED from [com.android.support:support-fragment:26.1.0] C:\Users\Austin Felipe\.gradle\caches\transforms-1\files-1.1\support-fragment-26.1.0.aar\1515ad95a0a1764d9d64e052ba83826f\AndroidManifest.xml:25:5-29:19
MERGED from [com.android.support:support-fragment:26.1.0] C:\Users\Austin Felipe\.gradle\caches\transforms-1\files-1.1\support-fragment-26.1.0.aar\1515ad95a0a1764d9d64e052ba83826f\AndroidManifest.xml:25:5-29:19
MERGED from [com.android.support:support-core-utils:26.1.0] C:\Users\Austin Felipe\.gradle\caches\transforms-1\files-1.1\support-core-utils-26.1.0.aar\540e9286b6b98f84c2f13994d144de56\AndroidManifest.xml:25:5-29:19
MERGED from [com.android.support:support-core-utils:26.1.0] C:\Users\Austin Felipe\.gradle\caches\transforms-1\files-1.1\support-core-utils-26.1.0.aar\540e9286b6b98f84c2f13994d144de56\AndroidManifest.xml:25:5-29:19
MERGED from [com.android.support:support-core-ui:26.1.0] C:\Users\Austin Felipe\.gradle\caches\transforms-1\files-1.1\support-core-ui-26.1.0.aar\ff5ace8f00bc04ef9094f5e6c1f71a76\AndroidManifest.xml:25:5-29:19
MERGED from [com.android.support:support-core-ui:26.1.0] C:\Users\Austin Felipe\.gradle\caches\transforms-1\files-1.1\support-core-ui-26.1.0.aar\ff5ace8f00bc04ef9094f5e6c1f71a76\AndroidManifest.xml:25:5-29:19
MERGED from [com.android.support:support-compat:26.1.0] C:\Users\Austin Felipe\.gradle\caches\transforms-1\files-1.1\support-compat-26.1.0.aar\07f74224aee242f70fa1b0615c801bbd\AndroidManifest.xml:25:5-29:19
MERGED from [com.android.support:support-compat:26.1.0] C:\Users\Austin Felipe\.gradle\caches\transforms-1\files-1.1\support-compat-26.1.0.aar\07f74224aee242f70fa1b0615c801bbd\AndroidManifest.xml:25:5-29:19
MERGED from [com.google.firebase:firebase-iid-license:12.0.1] C:\Users\Austin Felipe\.gradle\caches\transforms-1\files-1.1\firebase-iid-license-12.0.1.aar\4f814633a316ba9a700675d85129f968\AndroidManifest.xml:22:5-20
MERGED from [com.google.firebase:firebase-iid-license:12.0.1] C:\Users\Austin Felipe\.gradle\caches\transforms-1\files-1.1\firebase-iid-license-12.0.1.aar\4f814633a316ba9a700675d85129f968\AndroidManifest.xml:22:5-20
MERGED from [com.google.android.gms:play-services-basement-license:12.0.1] C:\Users\Austin Felipe\.gradle\caches\transforms-1\files-1.1\play-services-basement-license-12.0.1.aar\5741085387cee26cd9a75d1dbc1bd048\AndroidManifest.xml:22:5-20
MERGED from [com.google.android.gms:play-services-basement-license:12.0.1] C:\Users\Austin Felipe\.gradle\caches\transforms-1\files-1.1\play-services-basement-license-12.0.1.aar\5741085387cee26cd9a75d1dbc1bd048\AndroidManifest.xml:22:5-20
MERGED from [com.google.firebase:firebase-common-license:12.0.1] C:\Users\Austin Felipe\.gradle\caches\transforms-1\files-1.1\firebase-common-license-12.0.1.aar\93e9d9c5e800dd8b34548d664dd5bfcf\AndroidManifest.xml:22:5-20
MERGED from [com.google.firebase:firebase-common-license:12.0.1] C:\Users\Austin Felipe\.gradle\caches\transforms-1\files-1.1\firebase-common-license-12.0.1.aar\93e9d9c5e800dd8b34548d664dd5bfcf\AndroidManifest.xml:22:5-20
MERGED from [android.arch.lifecycle:runtime:1.0.0] C:\Users\Austin Felipe\.gradle\caches\transforms-1\files-1.1\runtime-1.0.0.aar\98255a8445730bbe6be2b5f6c207886a\AndroidManifest.xml:24:5-28:19
MERGED from [android.arch.lifecycle:runtime:1.0.0] C:\Users\Austin Felipe\.gradle\caches\transforms-1\files-1.1\runtime-1.0.0.aar\98255a8445730bbe6be2b5f6c207886a\AndroidManifest.xml:24:5-28:19
MERGED from [com.google.android.gms:play-services-tasks-license:12.0.1] C:\Users\Austin Felipe\.gradle\caches\transforms-1\files-1.1\play-services-tasks-license-12.0.1.aar\7315cfe706dd5b55e4dc3579f3784ddb\AndroidManifest.xml:22:5-20
MERGED from [com.google.android.gms:play-services-tasks-license:12.0.1] C:\Users\Austin Felipe\.gradle\caches\transforms-1\files-1.1\play-services-tasks-license-12.0.1.aar\7315cfe706dd5b55e4dc3579f3784ddb\AndroidManifest.xml:22:5-20
MERGED from [com.google.firebase:firebase-analytics-license:12.0.1] C:\Users\Austin Felipe\.gradle\caches\transforms-1\files-1.1\firebase-analytics-license-12.0.1.aar\5badfb845790ec9aae8164e8b4ac98e3\AndroidManifest.xml:22:5-20
MERGED from [com.google.firebase:firebase-analytics-license:12.0.1] C:\Users\Austin Felipe\.gradle\caches\transforms-1\files-1.1\firebase-analytics-license-12.0.1.aar\5badfb845790ec9aae8164e8b4ac98e3\AndroidManifest.xml:22:5-20
MERGED from [com.google.firebase:firebase-analytics-impl-license:12.0.1] C:\Users\Austin Felipe\.gradle\caches\transforms-1\files-1.1\firebase-analytics-impl-license-12.0.1.aar\c54588df977b187edd37e45d289bc1c7\AndroidManifest.xml:22:5-20
MERGED from [com.google.firebase:firebase-analytics-impl-license:12.0.1] C:\Users\Austin Felipe\.gradle\caches\transforms-1\files-1.1\firebase-analytics-impl-license-12.0.1.aar\c54588df977b187edd37e45d289bc1c7\AndroidManifest.xml:22:5-20
	android:supportsRtl
		ADDED from C:\Users\Austin Felipe\Documents\Projetos\moveleiros-chat-mobile-hybrid\platforms\android\app\src\main\AndroidManifest.xml:5:114-140
	android:label
		ADDED from C:\Users\Austin Felipe\Documents\Projetos\moveleiros-chat-mobile-hybrid\platforms\android\app\src\main\AndroidManifest.xml:5:81-113
	android:hardwareAccelerated
		ADDED from C:\Users\Austin Felipe\Documents\Projetos\moveleiros-chat-mobile-hybrid\platforms\android\app\src\main\AndroidManifest.xml:5:18-52
	android:icon
		ADDED from C:\Users\Austin Felipe\Documents\Projetos\moveleiros-chat-mobile-hybrid\platforms\android\app\src\main\AndroidManifest.xml:5:53-80
activity#chatmoveleiros.moveleiros.com.MainActivity
ADDED from C:\Users\Austin Felipe\Documents\Projetos\moveleiros-chat-mobile-hybrid\platforms\android\app\src\main\AndroidManifest.xml:6:9-11:20
	android:label
		ADDED from C:\Users\Austin Felipe\Documents\Projetos\moveleiros-chat-mobile-hybrid\platforms\android\app\src\main\AndroidManifest.xml:6:97-134
	android:launchMode
		ADDED from C:\Users\Austin Felipe\Documents\Projetos\moveleiros-chat-mobile-hybrid\platforms\android\app\src\main\AndroidManifest.xml:6:135-165
	android:windowSoftInputMode
		ADDED from C:\Users\Austin Felipe\Documents\Projetos\moveleiros-chat-mobile-hybrid\platforms\android\app\src\main\AndroidManifest.xml:6:257-299
	android:configChanges
		ADDED from C:\Users\Austin Felipe\Documents\Projetos\moveleiros-chat-mobile-hybrid\platforms\android\app\src\main\AndroidManifest.xml:6:19-96
	android:theme
		ADDED from C:\Users\Austin Felipe\Documents\Projetos\moveleiros-chat-mobile-hybrid\platforms\android\app\src\main\AndroidManifest.xml:6:194-256
	android:name
		ADDED from C:\Users\Austin Felipe\Documents\Projetos\moveleiros-chat-mobile-hybrid\platforms\android\app\src\main\AndroidManifest.xml:6:166-193
intent-filter#android.intent.action.MAIN+android.intent.category.LAUNCHER
ADDED from C:\Users\Austin Felipe\Documents\Projetos\moveleiros-chat-mobile-hybrid\platforms\android\app\src\main\AndroidManifest.xml:7:13-10:29
	android:label
		ADDED from C:\Users\Austin Felipe\Documents\Projetos\moveleiros-chat-mobile-hybrid\platforms\android\app\src\main\AndroidManifest.xml:7:28-65
action#android.intent.action.MAIN
ADDED from C:\Users\Austin Felipe\Documents\Projetos\moveleiros-chat-mobile-hybrid\platforms\android\app\src\main\AndroidManifest.xml:8:17-69
	android:name
		ADDED from C:\Users\Austin Felipe\Documents\Projetos\moveleiros-chat-mobile-hybrid\platforms\android\app\src\main\AndroidManifest.xml:8:25-66
category#android.intent.category.LAUNCHER
ADDED from C:\Users\Austin Felipe\Documents\Projetos\moveleiros-chat-mobile-hybrid\platforms\android\app\src\main\AndroidManifest.xml:9:17-77
	android:name
		ADDED from C:\Users\Austin Felipe\Documents\Projetos\moveleiros-chat-mobile-hybrid\platforms\android\app\src\main\AndroidManifest.xml:9:27-74
activity#com.gae.scaffolder.plugin.FCMPluginActivity
ADDED from C:\Users\Austin Felipe\Documents\Projetos\moveleiros-chat-mobile-hybrid\platforms\android\app\src\main\AndroidManifest.xml:12:9-17:20
	android:launchMode
		ADDED from C:\Users\Austin Felipe\Documents\Projetos\moveleiros-chat-mobile-hybrid\platforms\android\app\src\main\AndroidManifest.xml:12:43-73
	android:exported
		ADDED from C:\Users\Austin Felipe\Documents\Projetos\moveleiros-chat-mobile-hybrid\platforms\android\app\src\main\AndroidManifest.xml:12:19-42
	android:name
		ADDED from C:\Users\Austin Felipe\Documents\Projetos\moveleiros-chat-mobile-hybrid\platforms\android\app\src\main\AndroidManifest.xml:12:74-132
intent-filter#FCM_PLUGIN_ACTIVITY+android.intent.category.DEFAULT
ADDED from C:\Users\Austin Felipe\Documents\Projetos\moveleiros-chat-mobile-hybrid\platforms\android\app\src\main\AndroidManifest.xml:13:13-16:29
action#FCM_PLUGIN_ACTIVITY
ADDED from C:\Users\Austin Felipe\Documents\Projetos\moveleiros-chat-mobile-hybrid\platforms\android\app\src\main\AndroidManifest.xml:14:17-62
	android:name
		ADDED from C:\Users\Austin Felipe\Documents\Projetos\moveleiros-chat-mobile-hybrid\platforms\android\app\src\main\AndroidManifest.xml:14:25-59
category#android.intent.category.DEFAULT
ADDED from C:\Users\Austin Felipe\Documents\Projetos\moveleiros-chat-mobile-hybrid\platforms\android\app\src\main\AndroidManifest.xml:15:17-76
	android:name
		ADDED from C:\Users\Austin Felipe\Documents\Projetos\moveleiros-chat-mobile-hybrid\platforms\android\app\src\main\AndroidManifest.xml:15:27-73
service#com.gae.scaffolder.plugin.MyFirebaseMessagingService
ADDED from C:\Users\Austin Felipe\Documents\Projetos\moveleiros-chat-mobile-hybrid\platforms\android\app\src\main\AndroidManifest.xml:18:9-22:19
	android:name
		ADDED from C:\Users\Austin Felipe\Documents\Projetos\moveleiros-chat-mobile-hybrid\platforms\android\app\src\main\AndroidManifest.xml:18:18-85
intent-filter#com.google.firebase.MESSAGING_EVENT
ADDED from C:\Users\Austin Felipe\Documents\Projetos\moveleiros-chat-mobile-hybrid\platforms\android\app\src\main\AndroidManifest.xml:19:13-21:29
action#com.google.firebase.MESSAGING_EVENT
ADDED from C:\Users\Austin Felipe\Documents\Projetos\moveleiros-chat-mobile-hybrid\platforms\android\app\src\main\AndroidManifest.xml:20:17-78
	android:name
		ADDED from C:\Users\Austin Felipe\Documents\Projetos\moveleiros-chat-mobile-hybrid\platforms\android\app\src\main\AndroidManifest.xml:20:25-75
service#com.gae.scaffolder.plugin.MyFirebaseInstanceIDService
ADDED from C:\Users\Austin Felipe\Documents\Projetos\moveleiros-chat-mobile-hybrid\platforms\android\app\src\main\AndroidManifest.xml:23:9-27:19
	android:name
		ADDED from C:\Users\Austin Felipe\Documents\Projetos\moveleiros-chat-mobile-hybrid\platforms\android\app\src\main\AndroidManifest.xml:23:18-86
intent-filter#com.google.firebase.INSTANCE_ID_EVENT
ADDED from C:\Users\Austin Felipe\Documents\Projetos\moveleiros-chat-mobile-hybrid\platforms\android\app\src\main\AndroidManifest.xml:24:13-26:29
action#com.google.firebase.INSTANCE_ID_EVENT
ADDED from C:\Users\Austin Felipe\Documents\Projetos\moveleiros-chat-mobile-hybrid\platforms\android\app\src\main\AndroidManifest.xml:25:17-80
	android:name
		ADDED from C:\Users\Austin Felipe\Documents\Projetos\moveleiros-chat-mobile-hybrid\platforms\android\app\src\main\AndroidManifest.xml:25:25-77
receiver#de.appplant.cordova.plugin.localnotification.TriggerReceiver
ADDED from C:\Users\Austin Felipe\Documents\Projetos\moveleiros-chat-mobile-hybrid\platforms\android\app\src\main\AndroidManifest.xml:31:9-122
	android:exported
		ADDED from C:\Users\Austin Felipe\Documents\Projetos\moveleiros-chat-mobile-hybrid\platforms\android\app\src\main\AndroidManifest.xml:31:19-43
	android:name
		ADDED from C:\Users\Austin Felipe\Documents\Projetos\moveleiros-chat-mobile-hybrid\platforms\android\app\src\main\AndroidManifest.xml:31:44-119
receiver#de.appplant.cordova.plugin.localnotification.ClearReceiver
ADDED from C:\Users\Austin Felipe\Documents\Projetos\moveleiros-chat-mobile-hybrid\platforms\android\app\src\main\AndroidManifest.xml:32:9-120
	android:exported
		ADDED from C:\Users\Austin Felipe\Documents\Projetos\moveleiros-chat-mobile-hybrid\platforms\android\app\src\main\AndroidManifest.xml:32:19-43
	android:name
		ADDED from C:\Users\Austin Felipe\Documents\Projetos\moveleiros-chat-mobile-hybrid\platforms\android\app\src\main\AndroidManifest.xml:32:44-117
activity#de.appplant.cordova.plugin.localnotification.ClickReceiver
ADDED from C:\Users\Austin Felipe\Documents\Projetos\moveleiros-chat-mobile-hybrid\platforms\android\app\src\main\AndroidManifest.xml:33:9-205
	android:launchMode
		ADDED from C:\Users\Austin Felipe\Documents\Projetos\moveleiros-chat-mobile-hybrid\platforms\android\app\src\main\AndroidManifest.xml:33:44-79
	android:exported
		ADDED from C:\Users\Austin Felipe\Documents\Projetos\moveleiros-chat-mobile-hybrid\platforms\android\app\src\main\AndroidManifest.xml:33:19-43
	android:theme
		ADDED from C:\Users\Austin Felipe\Documents\Projetos\moveleiros-chat-mobile-hybrid\platforms\android\app\src\main\AndroidManifest.xml:33:154-202
	android:name
		ADDED from C:\Users\Austin Felipe\Documents\Projetos\moveleiros-chat-mobile-hybrid\platforms\android\app\src\main\AndroidManifest.xml:33:80-153
uses-sdk
ADDED from C:\Users\Austin Felipe\Documents\Projetos\moveleiros-chat-mobile-hybrid\platforms\android\app\src\main\AndroidManifest.xml:35:5-74
MERGED from [me.leolin:ShortcutBadger:1.1.21] C:\Users\Austin Felipe\.gradle\caches\transforms-1\files-1.1\ShortcutBadger-1.1.21.aar\fc695e2f30ee1bc2821deb75c30c515d\AndroidManifest.xml:7:5-9:41
MERGED from [me.leolin:ShortcutBadger:1.1.21] C:\Users\Austin Felipe\.gradle\caches\transforms-1\files-1.1\ShortcutBadger-1.1.21.aar\fc695e2f30ee1bc2821deb75c30c515d\AndroidManifest.xml:7:5-9:41
MERGED from [com.android.volley:volley:1.1.0] C:\Users\Austin Felipe\.gradle\caches\transforms-1\files-1.1\volley-1.1.0.aar\507dd46c3aa53cf40a2f99fbb0bf9db1\AndroidManifest.xml:7:5-43
MERGED from [com.android.volley:volley:1.1.0] C:\Users\Austin Felipe\.gradle\caches\transforms-1\files-1.1\volley-1.1.0.aar\507dd46c3aa53cf40a2f99fbb0bf9db1\AndroidManifest.xml:7:5-43
MERGED from [com.google.firebase:firebase-core:12.0.1] C:\Users\Austin Felipe\.gradle\caches\transforms-1\files-1.1\firebase-core-12.0.1.aar\0e5db7f2382de29681dbee371918f19f\AndroidManifest.xml:4:5-43
MERGED from [com.google.firebase:firebase-core:12.0.1] C:\Users\Austin Felipe\.gradle\caches\transforms-1\files-1.1\firebase-core-12.0.1.aar\0e5db7f2382de29681dbee371918f19f\AndroidManifest.xml:4:5-43
MERGED from [com.google.firebase:firebase-messaging:12.0.1] C:\Users\Austin Felipe\.gradle\caches\transforms-1\files-1.1\firebase-messaging-12.0.1.aar\f9dc0607c9963c18979f48fcef0b6eb9\AndroidManifest.xml:20:5-44
MERGED from [com.google.firebase:firebase-messaging:12.0.1] C:\Users\Austin Felipe\.gradle\caches\transforms-1\files-1.1\firebase-messaging-12.0.1.aar\f9dc0607c9963c18979f48fcef0b6eb9\AndroidManifest.xml:20:5-44
MERGED from [com.google.firebase:firebase-analytics:12.0.1] C:\Users\Austin Felipe\.gradle\caches\transforms-1\files-1.1\firebase-analytics-12.0.1.aar\c76956ff32b1d678e10599d97af3cb0e\AndroidManifest.xml:20:5-44
MERGED from [com.google.firebase:firebase-analytics:12.0.1] C:\Users\Austin Felipe\.gradle\caches\transforms-1\files-1.1\firebase-analytics-12.0.1.aar\c76956ff32b1d678e10599d97af3cb0e\AndroidManifest.xml:20:5-44
MERGED from [com.google.firebase:firebase-analytics-impl:12.0.1] C:\Users\Austin Felipe\.gradle\caches\transforms-1\files-1.1\firebase-analytics-impl-12.0.1.aar\59b73a10dc08074dc31cb8c272bfe2e3\AndroidManifest.xml:20:5-44
MERGED from [com.google.firebase:firebase-analytics-impl:12.0.1] C:\Users\Austin Felipe\.gradle\caches\transforms-1\files-1.1\firebase-analytics-impl-12.0.1.aar\59b73a10dc08074dc31cb8c272bfe2e3\AndroidManifest.xml:20:5-44
MERGED from [com.google.firebase:firebase-iid:12.0.1] C:\Users\Austin Felipe\.gradle\caches\transforms-1\files-1.1\firebase-iid-12.0.1.aar\55f867a5d5e1f2e268d4d5b22e3e777b\AndroidManifest.xml:20:5-44
MERGED from [com.google.firebase:firebase-iid:12.0.1] C:\Users\Austin Felipe\.gradle\caches\transforms-1\files-1.1\firebase-iid-12.0.1.aar\55f867a5d5e1f2e268d4d5b22e3e777b\AndroidManifest.xml:20:5-44
MERGED from [com.google.firebase:firebase-common:12.0.1] C:\Users\Austin Felipe\.gradle\caches\transforms-1\files-1.1\firebase-common-12.0.1.aar\11291156a855e879758037b4e2a9f0d8\AndroidManifest.xml:5:5-44
MERGED from [com.google.firebase:firebase-common:12.0.1] C:\Users\Austin Felipe\.gradle\caches\transforms-1\files-1.1\firebase-common-12.0.1.aar\11291156a855e879758037b4e2a9f0d8\AndroidManifest.xml:5:5-44
MERGED from [com.google.android.gms:play-services-tasks:12.0.1] C:\Users\Austin Felipe\.gradle\caches\transforms-1\files-1.1\play-services-tasks-12.0.1.aar\104f6e28d2e850944945f387fa8f08cc\AndroidManifest.xml:5:5-44
MERGED from [com.google.android.gms:play-services-tasks:12.0.1] C:\Users\Austin Felipe\.gradle\caches\transforms-1\files-1.1\play-services-tasks-12.0.1.aar\104f6e28d2e850944945f387fa8f08cc\AndroidManifest.xml:5:5-44
MERGED from [com.google.android.gms:play-services-basement:12.0.1] C:\Users\Austin Felipe\.gradle\caches\transforms-1\files-1.1\play-services-basement-12.0.1.aar\3adea1be03db2cbe777bd1a7f27ce66d\AndroidManifest.xml:20:5-44
MERGED from [com.google.android.gms:play-services-basement:12.0.1] C:\Users\Austin Felipe\.gradle\caches\transforms-1\files-1.1\play-services-basement-12.0.1.aar\3adea1be03db2cbe777bd1a7f27ce66d\AndroidManifest.xml:20:5-44
MERGED from [com.android.support:support-v4:26.1.0] C:\Users\Austin Felipe\.gradle\caches\transforms-1\files-1.1\support-v4-26.1.0.aar\3450bc25881d94264f687789577a7b6c\AndroidManifest.xml:21:5-23:54
MERGED from [com.android.support:support-v4:26.1.0] C:\Users\Austin Felipe\.gradle\caches\transforms-1\files-1.1\support-v4-26.1.0.aar\3450bc25881d94264f687789577a7b6c\AndroidManifest.xml:21:5-23:54
MERGED from [:CordovaLib] C:\Users\Austin Felipe\Documents\Projetos\moveleiros-chat-mobile-hybrid\platforms\android\CordovaLib\build\intermediates\manifests\full\release\AndroidManifest.xml:25:5-44
MERGED from [:CordovaLib] C:\Users\Austin Felipe\Documents\Projetos\moveleiros-chat-mobile-hybrid\platforms\android\CordovaLib\build\intermediates\manifests\full\release\AndroidManifest.xml:25:5-44
MERGED from [com.google.firebase:firebase-messaging-license:12.0.1] C:\Users\Austin Felipe\.gradle\caches\transforms-1\files-1.1\firebase-messaging-license-12.0.1.aar\8761c32232fc713840cc780bb40fe8b6\AndroidManifest.xml:20:5-44
MERGED from [com.google.firebase:firebase-messaging-license:12.0.1] C:\Users\Austin Felipe\.gradle\caches\transforms-1\files-1.1\firebase-messaging-license-12.0.1.aar\8761c32232fc713840cc780bb40fe8b6\AndroidManifest.xml:20:5-44
MERGED from [com.android.support:support-media-compat:26.1.0] C:\Users\Austin Felipe\.gradle\caches\transforms-1\files-1.1\support-media-compat-26.1.0.aar\55f97cd12366c211c1317e6782d8d2e9\AndroidManifest.xml:21:5-23:63
MERGED from [com.android.support:support-media-compat:26.1.0] C:\Users\Austin Felipe\.gradle\caches\transforms-1\files-1.1\support-media-compat-26.1.0.aar\55f97cd12366c211c1317e6782d8d2e9\AndroidManifest.xml:21:5-23:63
MERGED from [com.android.support:support-fragment:26.1.0] C:\Users\Austin Felipe\.gradle\caches\transforms-1\files-1.1\support-fragment-26.1.0.aar\1515ad95a0a1764d9d64e052ba83826f\AndroidManifest.xml:21:5-23:60
MERGED from [com.android.support:support-fragment:26.1.0] C:\Users\Austin Felipe\.gradle\caches\transforms-1\files-1.1\support-fragment-26.1.0.aar\1515ad95a0a1764d9d64e052ba83826f\AndroidManifest.xml:21:5-23:60
MERGED from [com.android.support:support-core-utils:26.1.0] C:\Users\Austin Felipe\.gradle\caches\transforms-1\files-1.1\support-core-utils-26.1.0.aar\540e9286b6b98f84c2f13994d144de56\AndroidManifest.xml:21:5-23:61
MERGED from [com.android.support:support-core-utils:26.1.0] C:\Users\Austin Felipe\.gradle\caches\transforms-1\files-1.1\support-core-utils-26.1.0.aar\540e9286b6b98f84c2f13994d144de56\AndroidManifest.xml:21:5-23:61
MERGED from [com.android.support:support-core-ui:26.1.0] C:\Users\Austin Felipe\.gradle\caches\transforms-1\files-1.1\support-core-ui-26.1.0.aar\ff5ace8f00bc04ef9094f5e6c1f71a76\AndroidManifest.xml:21:5-23:58
MERGED from [com.android.support:support-core-ui:26.1.0] C:\Users\Austin Felipe\.gradle\caches\transforms-1\files-1.1\support-core-ui-26.1.0.aar\ff5ace8f00bc04ef9094f5e6c1f71a76\AndroidManifest.xml:21:5-23:58
MERGED from [com.android.support:support-compat:26.1.0] C:\Users\Austin Felipe\.gradle\caches\transforms-1\files-1.1\support-compat-26.1.0.aar\07f74224aee242f70fa1b0615c801bbd\AndroidManifest.xml:21:5-23:58
MERGED from [com.android.support:support-compat:26.1.0] C:\Users\Austin Felipe\.gradle\caches\transforms-1\files-1.1\support-compat-26.1.0.aar\07f74224aee242f70fa1b0615c801bbd\AndroidManifest.xml:21:5-23:58
MERGED from [com.google.firebase:firebase-iid-license:12.0.1] C:\Users\Austin Felipe\.gradle\caches\transforms-1\files-1.1\firebase-iid-license-12.0.1.aar\4f814633a316ba9a700675d85129f968\AndroidManifest.xml:20:5-44
MERGED from [com.google.firebase:firebase-iid-license:12.0.1] C:\Users\Austin Felipe\.gradle\caches\transforms-1\files-1.1\firebase-iid-license-12.0.1.aar\4f814633a316ba9a700675d85129f968\AndroidManifest.xml:20:5-44
MERGED from [com.google.android.gms:play-services-basement-license:12.0.1] C:\Users\Austin Felipe\.gradle\caches\transforms-1\files-1.1\play-services-basement-license-12.0.1.aar\5741085387cee26cd9a75d1dbc1bd048\AndroidManifest.xml:20:5-44
MERGED from [com.google.android.gms:play-services-basement-license:12.0.1] C:\Users\Austin Felipe\.gradle\caches\transforms-1\files-1.1\play-services-basement-license-12.0.1.aar\5741085387cee26cd9a75d1dbc1bd048\AndroidManifest.xml:20:5-44
MERGED from [com.google.firebase:firebase-common-license:12.0.1] C:\Users\Austin Felipe\.gradle\caches\transforms-1\files-1.1\firebase-common-license-12.0.1.aar\93e9d9c5e800dd8b34548d664dd5bfcf\AndroidManifest.xml:20:5-44
MERGED from [com.google.firebase:firebase-common-license:12.0.1] C:\Users\Austin Felipe\.gradle\caches\transforms-1\files-1.1\firebase-common-license-12.0.1.aar\93e9d9c5e800dd8b34548d664dd5bfcf\AndroidManifest.xml:20:5-44
MERGED from [android.arch.lifecycle:runtime:1.0.0] C:\Users\Austin Felipe\.gradle\caches\transforms-1\files-1.1\runtime-1.0.0.aar\98255a8445730bbe6be2b5f6c207886a\AndroidManifest.xml:20:5-22:41
MERGED from [android.arch.lifecycle:runtime:1.0.0] C:\Users\Austin Felipe\.gradle\caches\transforms-1\files-1.1\runtime-1.0.0.aar\98255a8445730bbe6be2b5f6c207886a\AndroidManifest.xml:20:5-22:41
MERGED from [com.google.android.gms:play-services-tasks-license:12.0.1] C:\Users\Austin Felipe\.gradle\caches\transforms-1\files-1.1\play-services-tasks-license-12.0.1.aar\7315cfe706dd5b55e4dc3579f3784ddb\AndroidManifest.xml:20:5-44
MERGED from [com.google.android.gms:play-services-tasks-license:12.0.1] C:\Users\Austin Felipe\.gradle\caches\transforms-1\files-1.1\play-services-tasks-license-12.0.1.aar\7315cfe706dd5b55e4dc3579f3784ddb\AndroidManifest.xml:20:5-44
MERGED from [com.google.firebase:firebase-analytics-license:12.0.1] C:\Users\Austin Felipe\.gradle\caches\transforms-1\files-1.1\firebase-analytics-license-12.0.1.aar\5badfb845790ec9aae8164e8b4ac98e3\AndroidManifest.xml:20:5-44
MERGED from [com.google.firebase:firebase-analytics-license:12.0.1] C:\Users\Austin Felipe\.gradle\caches\transforms-1\files-1.1\firebase-analytics-license-12.0.1.aar\5badfb845790ec9aae8164e8b4ac98e3\AndroidManifest.xml:20:5-44
MERGED from [com.google.firebase:firebase-analytics-impl-license:12.0.1] C:\Users\Austin Felipe\.gradle\caches\transforms-1\files-1.1\firebase-analytics-impl-license-12.0.1.aar\c54588df977b187edd37e45d289bc1c7\AndroidManifest.xml:20:5-44
MERGED from [com.google.firebase:firebase-analytics-impl-license:12.0.1] C:\Users\Austin Felipe\.gradle\caches\transforms-1\files-1.1\firebase-analytics-impl-license-12.0.1.aar\c54588df977b187edd37e45d289bc1c7\AndroidManifest.xml:20:5-44
	tools:overrideLibrary
		ADDED from [com.android.support:support-v4:26.1.0] C:\Users\Austin Felipe\.gradle\caches\transforms-1\files-1.1\support-v4-26.1.0.aar\3450bc25881d94264f687789577a7b6c\AndroidManifest.xml:23:9-51
	android:targetSdkVersion
		ADDED from C:\Users\Austin Felipe\Documents\Projetos\moveleiros-chat-mobile-hybrid\platforms\android\app\src\main\AndroidManifest.xml:35:42-71
	android:minSdkVersion
		ADDED from C:\Users\Austin Felipe\Documents\Projetos\moveleiros-chat-mobile-hybrid\platforms\android\app\src\main\AndroidManifest.xml:35:15-41
uses-permission#android.permission.WAKE_LOCK
ADDED from C:\Users\Austin Felipe\Documents\Projetos\moveleiros-chat-mobile-hybrid\platforms\android\app\src\main\AndroidManifest.xml:36:5-68
MERGED from [com.google.firebase:firebase-analytics:12.0.1] C:\Users\Austin Felipe\.gradle\caches\transforms-1\files-1.1\firebase-analytics-12.0.1.aar\c76956ff32b1d678e10599d97af3cb0e\AndroidManifest.xml:25:5-68
MERGED from [com.google.firebase:firebase-analytics:12.0.1] C:\Users\Austin Felipe\.gradle\caches\transforms-1\files-1.1\firebase-analytics-12.0.1.aar\c76956ff32b1d678e10599d97af3cb0e\AndroidManifest.xml:25:5-68
MERGED from [com.google.firebase:firebase-analytics-impl:12.0.1] C:\Users\Austin Felipe\.gradle\caches\transforms-1\files-1.1\firebase-analytics-impl-12.0.1.aar\59b73a10dc08074dc31cb8c272bfe2e3\AndroidManifest.xml:25:5-68
MERGED from [com.google.firebase:firebase-analytics-impl:12.0.1] C:\Users\Austin Felipe\.gradle\caches\transforms-1\files-1.1\firebase-analytics-impl-12.0.1.aar\59b73a10dc08074dc31cb8c272bfe2e3\AndroidManifest.xml:25:5-68
MERGED from [com.google.firebase:firebase-iid:12.0.1] C:\Users\Austin Felipe\.gradle\caches\transforms-1\files-1.1\firebase-iid-12.0.1.aar\55f867a5d5e1f2e268d4d5b22e3e777b\AndroidManifest.xml:24:5-68
MERGED from [com.google.firebase:firebase-iid:12.0.1] C:\Users\Austin Felipe\.gradle\caches\transforms-1\files-1.1\firebase-iid-12.0.1.aar\55f867a5d5e1f2e268d4d5b22e3e777b\AndroidManifest.xml:24:5-68
	android:name
		ADDED from C:\Users\Austin Felipe\Documents\Projetos\moveleiros-chat-mobile-hybrid\platforms\android\app\src\main\AndroidManifest.xml:36:22-65
meta-data#android.support.FILE_PROVIDER_PATHS
ADDED from C:\Users\Austin Felipe\Documents\Projetos\moveleiros-chat-mobile-hybrid\platforms\android\app\src\main\AndroidManifest.xml:29:13-134
	android:resource
		ADDED from C:\Users\Austin Felipe\Documents\Projetos\moveleiros-chat-mobile-hybrid\platforms\android\app\src\main\AndroidManifest.xml:29:75-131
	android:name
		ADDED from C:\Users\Austin Felipe\Documents\Projetos\moveleiros-chat-mobile-hybrid\platforms\android\app\src\main\AndroidManifest.xml:29:24-74
uses-permission#com.sec.android.provider.badge.permission.READ
ADDED from [me.leolin:ShortcutBadger:1.1.21] C:\Users\Austin Felipe\.gradle\caches\transforms-1\files-1.1\ShortcutBadger-1.1.21.aar\fc695e2f30ee1bc2821deb75c30c515d\AndroidManifest.xml:19:5-86
	android:name
		ADDED from [me.leolin:ShortcutBadger:1.1.21] C:\Users\Austin Felipe\.gradle\caches\transforms-1\files-1.1\ShortcutBadger-1.1.21.aar\fc695e2f30ee1bc2821deb75c30c515d\AndroidManifest.xml:19:22-83
uses-permission#com.sec.android.provider.badge.permission.WRITE
ADDED from [me.leolin:ShortcutBadger:1.1.21] C:\Users\Austin Felipe\.gradle\caches\transforms-1\files-1.1\ShortcutBadger-1.1.21.aar\fc695e2f30ee1bc2821deb75c30c515d\AndroidManifest.xml:20:5-87
	android:name
		ADDED from [me.leolin:ShortcutBadger:1.1.21] C:\Users\Austin Felipe\.gradle\caches\transforms-1\files-1.1\ShortcutBadger-1.1.21.aar\fc695e2f30ee1bc2821deb75c30c515d\AndroidManifest.xml:20:22-84
uses-permission#com.htc.launcher.permission.READ_SETTINGS
ADDED from [me.leolin:ShortcutBadger:1.1.21] C:\Users\Austin Felipe\.gradle\caches\transforms-1\files-1.1\ShortcutBadger-1.1.21.aar\fc695e2f30ee1bc2821deb75c30c515d\AndroidManifest.xml:23:5-81
	android:name
		ADDED from [me.leolin:ShortcutBadger:1.1.21] C:\Users\Austin Felipe\.gradle\caches\transforms-1\files-1.1\ShortcutBadger-1.1.21.aar\fc695e2f30ee1bc2821deb75c30c515d\AndroidManifest.xml:23:22-78
uses-permission#com.htc.launcher.permission.UPDATE_SHORTCUT
ADDED from [me.leolin:ShortcutBadger:1.1.21] C:\Users\Austin Felipe\.gradle\caches\transforms-1\files-1.1\ShortcutBadger-1.1.21.aar\fc695e2f30ee1bc2821deb75c30c515d\AndroidManifest.xml:24:5-83
	android:name
		ADDED from [me.leolin:ShortcutBadger:1.1.21] C:\Users\Austin Felipe\.gradle\caches\transforms-1\files-1.1\ShortcutBadger-1.1.21.aar\fc695e2f30ee1bc2821deb75c30c515d\AndroidManifest.xml:24:22-80
uses-permission#com.sonyericsson.home.permission.BROADCAST_BADGE
ADDED from [me.leolin:ShortcutBadger:1.1.21] C:\Users\Austin Felipe\.gradle\caches\transforms-1\files-1.1\ShortcutBadger-1.1.21.aar\fc695e2f30ee1bc2821deb75c30c515d\AndroidManifest.xml:27:5-88
	android:name
		ADDED from [me.leolin:ShortcutBadger:1.1.21] C:\Users\Austin Felipe\.gradle\caches\transforms-1\files-1.1\ShortcutBadger-1.1.21.aar\fc695e2f30ee1bc2821deb75c30c515d\AndroidManifest.xml:27:22-85
uses-permission#com.sonymobile.home.permission.PROVIDER_INSERT_BADGE
ADDED from [me.leolin:ShortcutBadger:1.1.21] C:\Users\Austin Felipe\.gradle\caches\transforms-1\files-1.1\ShortcutBadger-1.1.21.aar\fc695e2f30ee1bc2821deb75c30c515d\AndroidManifest.xml:28:5-92
	android:name
		ADDED from [me.leolin:ShortcutBadger:1.1.21] C:\Users\Austin Felipe\.gradle\caches\transforms-1\files-1.1\ShortcutBadger-1.1.21.aar\fc695e2f30ee1bc2821deb75c30c515d\AndroidManifest.xml:28:22-89
uses-permission#com.anddoes.launcher.permission.UPDATE_COUNT
ADDED from [me.leolin:ShortcutBadger:1.1.21] C:\Users\Austin Felipe\.gradle\caches\transforms-1\files-1.1\ShortcutBadger-1.1.21.aar\fc695e2f30ee1bc2821deb75c30c515d\AndroidManifest.xml:31:5-84
	android:name
		ADDED from [me.leolin:ShortcutBadger:1.1.21] C:\Users\Austin Felipe\.gradle\caches\transforms-1\files-1.1\ShortcutBadger-1.1.21.aar\fc695e2f30ee1bc2821deb75c30c515d\AndroidManifest.xml:31:22-81
uses-permission#com.majeur.launcher.permission.UPDATE_BADGE
ADDED from [me.leolin:ShortcutBadger:1.1.21] C:\Users\Austin Felipe\.gradle\caches\transforms-1\files-1.1\ShortcutBadger-1.1.21.aar\fc695e2f30ee1bc2821deb75c30c515d\AndroidManifest.xml:34:5-83
	android:name
		ADDED from [me.leolin:ShortcutBadger:1.1.21] C:\Users\Austin Felipe\.gradle\caches\transforms-1\files-1.1\ShortcutBadger-1.1.21.aar\fc695e2f30ee1bc2821deb75c30c515d\AndroidManifest.xml:34:22-80
uses-permission#com.huawei.android.launcher.permission.CHANGE_BADGE
ADDED from [me.leolin:ShortcutBadger:1.1.21] C:\Users\Austin Felipe\.gradle\caches\transforms-1\files-1.1\ShortcutBadger-1.1.21.aar\fc695e2f30ee1bc2821deb75c30c515d\AndroidManifest.xml:37:5-91
	android:name
		ADDED from [me.leolin:ShortcutBadger:1.1.21] C:\Users\Austin Felipe\.gradle\caches\transforms-1\files-1.1\ShortcutBadger-1.1.21.aar\fc695e2f30ee1bc2821deb75c30c515d\AndroidManifest.xml:37:22-88
uses-permission#com.huawei.android.launcher.permission.READ_SETTINGS
ADDED from [me.leolin:ShortcutBadger:1.1.21] C:\Users\Austin Felipe\.gradle\caches\transforms-1\files-1.1\ShortcutBadger-1.1.21.aar\fc695e2f30ee1bc2821deb75c30c515d\AndroidManifest.xml:38:5-92
	android:name
		ADDED from [me.leolin:ShortcutBadger:1.1.21] C:\Users\Austin Felipe\.gradle\caches\transforms-1\files-1.1\ShortcutBadger-1.1.21.aar\fc695e2f30ee1bc2821deb75c30c515d\AndroidManifest.xml:38:22-89
uses-permission#com.huawei.android.launcher.permission.WRITE_SETTINGS
ADDED from [me.leolin:ShortcutBadger:1.1.21] C:\Users\Austin Felipe\.gradle\caches\transforms-1\files-1.1\ShortcutBadger-1.1.21.aar\fc695e2f30ee1bc2821deb75c30c515d\AndroidManifest.xml:39:5-93
	android:name
		ADDED from [me.leolin:ShortcutBadger:1.1.21] C:\Users\Austin Felipe\.gradle\caches\transforms-1\files-1.1\ShortcutBadger-1.1.21.aar\fc695e2f30ee1bc2821deb75c30c515d\AndroidManifest.xml:39:22-90
uses-permission#android.permission.READ_APP_BADGE
ADDED from [me.leolin:ShortcutBadger:1.1.21] C:\Users\Austin Felipe\.gradle\caches\transforms-1\files-1.1\ShortcutBadger-1.1.21.aar\fc695e2f30ee1bc2821deb75c30c515d\AndroidManifest.xml:42:5-73
	android:name
		ADDED from [me.leolin:ShortcutBadger:1.1.21] C:\Users\Austin Felipe\.gradle\caches\transforms-1\files-1.1\ShortcutBadger-1.1.21.aar\fc695e2f30ee1bc2821deb75c30c515d\AndroidManifest.xml:42:22-70
uses-permission#com.oppo.launcher.permission.READ_SETTINGS
ADDED from [me.leolin:ShortcutBadger:1.1.21] C:\Users\Austin Felipe\.gradle\caches\transforms-1\files-1.1\ShortcutBadger-1.1.21.aar\fc695e2f30ee1bc2821deb75c30c515d\AndroidManifest.xml:45:5-82
	android:name
		ADDED from [me.leolin:ShortcutBadger:1.1.21] C:\Users\Austin Felipe\.gradle\caches\transforms-1\files-1.1\ShortcutBadger-1.1.21.aar\fc695e2f30ee1bc2821deb75c30c515d\AndroidManifest.xml:45:22-79
uses-permission#com.oppo.launcher.permission.WRITE_SETTINGS
ADDED from [me.leolin:ShortcutBadger:1.1.21] C:\Users\Austin Felipe\.gradle\caches\transforms-1\files-1.1\ShortcutBadger-1.1.21.aar\fc695e2f30ee1bc2821deb75c30c515d\AndroidManifest.xml:46:5-83
	android:name
		ADDED from [me.leolin:ShortcutBadger:1.1.21] C:\Users\Austin Felipe\.gradle\caches\transforms-1\files-1.1\ShortcutBadger-1.1.21.aar\fc695e2f30ee1bc2821deb75c30c515d\AndroidManifest.xml:46:22-80
uses-permission#me.everything.badger.permission.BADGE_COUNT_READ
ADDED from [me.leolin:ShortcutBadger:1.1.21] C:\Users\Austin Felipe\.gradle\caches\transforms-1\files-1.1\ShortcutBadger-1.1.21.aar\fc695e2f30ee1bc2821deb75c30c515d\AndroidManifest.xml:49:5-88
	android:name
		ADDED from [me.leolin:ShortcutBadger:1.1.21] C:\Users\Austin Felipe\.gradle\caches\transforms-1\files-1.1\ShortcutBadger-1.1.21.aar\fc695e2f30ee1bc2821deb75c30c515d\AndroidManifest.xml:49:22-85
uses-permission#me.everything.badger.permission.BADGE_COUNT_WRITE
ADDED from [me.leolin:ShortcutBadger:1.1.21] C:\Users\Austin Felipe\.gradle\caches\transforms-1\files-1.1\ShortcutBadger-1.1.21.aar\fc695e2f30ee1bc2821deb75c30c515d\AndroidManifest.xml:50:5-89
	android:name
		ADDED from [me.leolin:ShortcutBadger:1.1.21] C:\Users\Austin Felipe\.gradle\caches\transforms-1\files-1.1\ShortcutBadger-1.1.21.aar\fc695e2f30ee1bc2821deb75c30c515d\AndroidManifest.xml:50:22-86
service#com.google.firebase.messaging.FirebaseMessagingService
ADDED from [com.google.firebase:firebase-messaging:12.0.1] C:\Users\Austin Felipe\.gradle\caches\transforms-1\files-1.1\firebase-messaging-12.0.1.aar\f9dc0607c9963c18979f48fcef0b6eb9\AndroidManifest.xml:28:9-34:19
	android:exported
		ADDED from [com.google.firebase:firebase-messaging:12.0.1] C:\Users\Austin Felipe\.gradle\caches\transforms-1\files-1.1\firebase-messaging-12.0.1.aar\f9dc0607c9963c18979f48fcef0b6eb9\AndroidManifest.xml:30:13-36
	android:name
		ADDED from [com.google.firebase:firebase-messaging:12.0.1] C:\Users\Austin Felipe\.gradle\caches\transforms-1\files-1.1\firebase-messaging-12.0.1.aar\f9dc0607c9963c18979f48fcef0b6eb9\AndroidManifest.xml:29:13-82
uses-permission#android.permission.ACCESS_NETWORK_STATE
ADDED from [com.google.firebase:firebase-analytics:12.0.1] C:\Users\Austin Felipe\.gradle\caches\transforms-1\files-1.1\firebase-analytics-12.0.1.aar\c76956ff32b1d678e10599d97af3cb0e\AndroidManifest.xml:24:5-79
MERGED from [com.google.firebase:firebase-analytics-impl:12.0.1] C:\Users\Austin Felipe\.gradle\caches\transforms-1\files-1.1\firebase-analytics-impl-12.0.1.aar\59b73a10dc08074dc31cb8c272bfe2e3\AndroidManifest.xml:24:5-79
MERGED from [com.google.firebase:firebase-analytics-impl:12.0.1] C:\Users\Austin Felipe\.gradle\caches\transforms-1\files-1.1\firebase-analytics-impl-12.0.1.aar\59b73a10dc08074dc31cb8c272bfe2e3\AndroidManifest.xml:24:5-79
MERGED from [com.google.firebase:firebase-iid:12.0.1] C:\Users\Austin Felipe\.gradle\caches\transforms-1\files-1.1\firebase-iid-12.0.1.aar\55f867a5d5e1f2e268d4d5b22e3e777b\AndroidManifest.xml:22:5-79
MERGED from [com.google.firebase:firebase-iid:12.0.1] C:\Users\Austin Felipe\.gradle\caches\transforms-1\files-1.1\firebase-iid-12.0.1.aar\55f867a5d5e1f2e268d4d5b22e3e777b\AndroidManifest.xml:22:5-79
	android:name
		ADDED from [com.google.firebase:firebase-analytics:12.0.1] C:\Users\Austin Felipe\.gradle\caches\transforms-1\files-1.1\firebase-analytics-12.0.1.aar\c76956ff32b1d678e10599d97af3cb0e\AndroidManifest.xml:24:22-76
receiver#com.google.android.gms.measurement.AppMeasurementReceiver
ADDED from [com.google.firebase:firebase-analytics:12.0.1] C:\Users\Austin Felipe\.gradle\caches\transforms-1\files-1.1\firebase-analytics-12.0.1.aar\c76956ff32b1d678e10599d97af3cb0e\AndroidManifest.xml:28:9-32:20
MERGED from [com.google.firebase:firebase-analytics-impl:12.0.1] C:\Users\Austin Felipe\.gradle\caches\transforms-1\files-1.1\firebase-analytics-impl-12.0.1.aar\59b73a10dc08074dc31cb8c272bfe2e3\AndroidManifest.xml:28:9-32:20
MERGED from [com.google.firebase:firebase-analytics-impl:12.0.1] C:\Users\Austin Felipe\.gradle\caches\transforms-1\files-1.1\firebase-analytics-impl-12.0.1.aar\59b73a10dc08074dc31cb8c272bfe2e3\AndroidManifest.xml:28:9-32:20
	android:enabled
		ADDED from [com.google.firebase:firebase-analytics:12.0.1] C:\Users\Austin Felipe\.gradle\caches\transforms-1\files-1.1\firebase-analytics-12.0.1.aar\c76956ff32b1d678e10599d97af3cb0e\AndroidManifest.xml:30:13-35
	android:exported
		ADDED from [com.google.firebase:firebase-analytics:12.0.1] C:\Users\Austin Felipe\.gradle\caches\transforms-1\files-1.1\firebase-analytics-12.0.1.aar\c76956ff32b1d678e10599d97af3cb0e\AndroidManifest.xml:31:13-37
	android:name
		ADDED from [com.google.firebase:firebase-analytics:12.0.1] C:\Users\Austin Felipe\.gradle\caches\transforms-1\files-1.1\firebase-analytics-12.0.1.aar\c76956ff32b1d678e10599d97af3cb0e\AndroidManifest.xml:29:13-85
receiver#com.google.android.gms.measurement.AppMeasurementInstallReferrerReceiver
ADDED from [com.google.firebase:firebase-analytics:12.0.1] C:\Users\Austin Felipe\.gradle\caches\transforms-1\files-1.1\firebase-analytics-12.0.1.aar\c76956ff32b1d678e10599d97af3cb0e\AndroidManifest.xml:33:9-41:20
	android:enabled
		ADDED from [com.google.firebase:firebase-analytics:12.0.1] C:\Users\Austin Felipe\.gradle\caches\transforms-1\files-1.1\firebase-analytics-12.0.1.aar\c76956ff32b1d678e10599d97af3cb0e\AndroidManifest.xml:35:13-35
	android:exported
		ADDED from [com.google.firebase:firebase-analytics:12.0.1] C:\Users\Austin Felipe\.gradle\caches\transforms-1\files-1.1\firebase-analytics-12.0.1.aar\c76956ff32b1d678e10599d97af3cb0e\AndroidManifest.xml:36:13-36
	android:permission
		ADDED from [com.google.firebase:firebase-analytics:12.0.1] C:\Users\Austin Felipe\.gradle\caches\transforms-1\files-1.1\firebase-analytics-12.0.1.aar\c76956ff32b1d678e10599d97af3cb0e\AndroidManifest.xml:37:13-69
	android:name
		ADDED from [com.google.firebase:firebase-analytics:12.0.1] C:\Users\Austin Felipe\.gradle\caches\transforms-1\files-1.1\firebase-analytics-12.0.1.aar\c76956ff32b1d678e10599d97af3cb0e\AndroidManifest.xml:34:13-100
intent-filter#com.android.vending.INSTALL_REFERRER
ADDED from [com.google.firebase:firebase-analytics:12.0.1] C:\Users\Austin Felipe\.gradle\caches\transforms-1\files-1.1\firebase-analytics-12.0.1.aar\c76956ff32b1d678e10599d97af3cb0e\AndroidManifest.xml:38:13-40:29
action#com.android.vending.INSTALL_REFERRER
ADDED from [com.google.firebase:firebase-analytics:12.0.1] C:\Users\Austin Felipe\.gradle\caches\transforms-1\files-1.1\firebase-analytics-12.0.1.aar\c76956ff32b1d678e10599d97af3cb0e\AndroidManifest.xml:39:17-79
	android:name
		ADDED from [com.google.firebase:firebase-analytics:12.0.1] C:\Users\Austin Felipe\.gradle\caches\transforms-1\files-1.1\firebase-analytics-12.0.1.aar\c76956ff32b1d678e10599d97af3cb0e\AndroidManifest.xml:39:25-76
service#com.google.android.gms.measurement.AppMeasurementService
ADDED from [com.google.firebase:firebase-analytics:12.0.1] C:\Users\Austin Felipe\.gradle\caches\transforms-1\files-1.1\firebase-analytics-12.0.1.aar\c76956ff32b1d678e10599d97af3cb0e\AndroidManifest.xml:43:9-46:40
MERGED from [com.google.firebase:firebase-analytics-impl:12.0.1] C:\Users\Austin Felipe\.gradle\caches\transforms-1\files-1.1\firebase-analytics-impl-12.0.1.aar\59b73a10dc08074dc31cb8c272bfe2e3\AndroidManifest.xml:34:9-37:40
MERGED from [com.google.firebase:firebase-analytics-impl:12.0.1] C:\Users\Austin Felipe\.gradle\caches\transforms-1\files-1.1\firebase-analytics-impl-12.0.1.aar\59b73a10dc08074dc31cb8c272bfe2e3\AndroidManifest.xml:34:9-37:40
	android:enabled
		ADDED from [com.google.firebase:firebase-analytics:12.0.1] C:\Users\Austin Felipe\.gradle\caches\transforms-1\files-1.1\firebase-analytics-12.0.1.aar\c76956ff32b1d678e10599d97af3cb0e\AndroidManifest.xml:45:13-35
	android:exported
		ADDED from [com.google.firebase:firebase-analytics:12.0.1] C:\Users\Austin Felipe\.gradle\caches\transforms-1\files-1.1\firebase-analytics-12.0.1.aar\c76956ff32b1d678e10599d97af3cb0e\AndroidManifest.xml:46:13-37
	android:name
		ADDED from [com.google.firebase:firebase-analytics:12.0.1] C:\Users\Austin Felipe\.gradle\caches\transforms-1\files-1.1\firebase-analytics-12.0.1.aar\c76956ff32b1d678e10599d97af3cb0e\AndroidManifest.xml:44:13-84
service#com.google.android.gms.measurement.AppMeasurementJobService
ADDED from [com.google.firebase:firebase-analytics:12.0.1] C:\Users\Austin Felipe\.gradle\caches\transforms-1\files-1.1\firebase-analytics-12.0.1.aar\c76956ff32b1d678e10599d97af3cb0e\AndroidManifest.xml:47:9-51:72
	android:enabled
		ADDED from [com.google.firebase:firebase-analytics:12.0.1] C:\Users\Austin Felipe\.gradle\caches\transforms-1\files-1.1\firebase-analytics-12.0.1.aar\c76956ff32b1d678e10599d97af3cb0e\AndroidManifest.xml:49:13-35
	android:exported
		ADDED from [com.google.firebase:firebase-analytics:12.0.1] C:\Users\Austin Felipe\.gradle\caches\transforms-1\files-1.1\firebase-analytics-12.0.1.aar\c76956ff32b1d678e10599d97af3cb0e\AndroidManifest.xml:50:13-37
	android:permission
		ADDED from [com.google.firebase:firebase-analytics:12.0.1] C:\Users\Austin Felipe\.gradle\caches\transforms-1\files-1.1\firebase-analytics-12.0.1.aar\c76956ff32b1d678e10599d97af3cb0e\AndroidManifest.xml:51:13-69
	android:name
		ADDED from [com.google.firebase:firebase-analytics:12.0.1] C:\Users\Austin Felipe\.gradle\caches\transforms-1\files-1.1\firebase-analytics-12.0.1.aar\c76956ff32b1d678e10599d97af3cb0e\AndroidManifest.xml:48:13-87
uses-permission#com.google.android.c2dm.permission.RECEIVE
ADDED from [com.google.firebase:firebase-iid:12.0.1] C:\Users\Austin Felipe\.gradle\caches\transforms-1\files-1.1\firebase-iid-12.0.1.aar\55f867a5d5e1f2e268d4d5b22e3e777b\AndroidManifest.xml:26:5-82
	android:name
		ADDED from [com.google.firebase:firebase-iid:12.0.1] C:\Users\Austin Felipe\.gradle\caches\transforms-1\files-1.1\firebase-iid-12.0.1.aar\55f867a5d5e1f2e268d4d5b22e3e777b\AndroidManifest.xml:26:22-79
permission#${applicationId}.permission.C2D_MESSAGE
ADDED from [com.google.firebase:firebase-iid:12.0.1] C:\Users\Austin Felipe\.gradle\caches\transforms-1\files-1.1\firebase-iid-12.0.1.aar\55f867a5d5e1f2e268d4d5b22e3e777b\AndroidManifest.xml:28:5-30:47
	android:protectionLevel
		ADDED from [com.google.firebase:firebase-iid:12.0.1] C:\Users\Austin Felipe\.gradle\caches\transforms-1\files-1.1\firebase-iid-12.0.1.aar\55f867a5d5e1f2e268d4d5b22e3e777b\AndroidManifest.xml:30:9-44
	android:name
		ADDED from [com.google.firebase:firebase-iid:12.0.1] C:\Users\Austin Felipe\.gradle\caches\transforms-1\files-1.1\firebase-iid-12.0.1.aar\55f867a5d5e1f2e268d4d5b22e3e777b\AndroidManifest.xml:29:9-63
permission#chatmoveleiros.moveleiros.com.permission.C2D_MESSAGE
ADDED from [com.google.firebase:firebase-iid:12.0.1] C:\Users\Austin Felipe\.gradle\caches\transforms-1\files-1.1\firebase-iid-12.0.1.aar\55f867a5d5e1f2e268d4d5b22e3e777b\AndroidManifest.xml:28:5-30:47
	android:protectionLevel
		ADDED from [com.google.firebase:firebase-iid:12.0.1] C:\Users\Austin Felipe\.gradle\caches\transforms-1\files-1.1\firebase-iid-12.0.1.aar\55f867a5d5e1f2e268d4d5b22e3e777b\AndroidManifest.xml:30:9-44
	android:name
		ADDED from [com.google.firebase:firebase-iid:12.0.1] C:\Users\Austin Felipe\.gradle\caches\transforms-1\files-1.1\firebase-iid-12.0.1.aar\55f867a5d5e1f2e268d4d5b22e3e777b\AndroidManifest.xml:29:9-63
uses-permission#${applicationId}.permission.C2D_MESSAGE
ADDED from [com.google.firebase:firebase-iid:12.0.1] C:\Users\Austin Felipe\.gradle\caches\transforms-1\files-1.1\firebase-iid-12.0.1.aar\55f867a5d5e1f2e268d4d5b22e3e777b\AndroidManifest.xml:32:5-79
	android:name
		ADDED from [com.google.firebase:firebase-iid:12.0.1] C:\Users\Austin Felipe\.gradle\caches\transforms-1\files-1.1\firebase-iid-12.0.1.aar\55f867a5d5e1f2e268d4d5b22e3e777b\AndroidManifest.xml:32:22-76
uses-permission#chatmoveleiros.moveleiros.com.permission.C2D_MESSAGE
ADDED from [com.google.firebase:firebase-iid:12.0.1] C:\Users\Austin Felipe\.gradle\caches\transforms-1\files-1.1\firebase-iid-12.0.1.aar\55f867a5d5e1f2e268d4d5b22e3e777b\AndroidManifest.xml:32:5-79
	android:name
		ADDED from [com.google.firebase:firebase-iid:12.0.1] C:\Users\Austin Felipe\.gradle\caches\transforms-1\files-1.1\firebase-iid-12.0.1.aar\55f867a5d5e1f2e268d4d5b22e3e777b\AndroidManifest.xml:32:22-76
receiver#com.google.firebase.iid.FirebaseInstanceIdReceiver
ADDED from [com.google.firebase:firebase-iid:12.0.1] C:\Users\Austin Felipe\.gradle\caches\transforms-1\files-1.1\firebase-iid-12.0.1.aar\55f867a5d5e1f2e268d4d5b22e3e777b\AndroidManifest.xml:35:9-44:20
	android:exported
		ADDED from [com.google.firebase:firebase-iid:12.0.1] C:\Users\Austin Felipe\.gradle\caches\transforms-1\files-1.1\firebase-iid-12.0.1.aar\55f867a5d5e1f2e268d4d5b22e3e777b\AndroidManifest.xml:37:13-36
	android:permission
		ADDED from [com.google.firebase:firebase-iid:12.0.1] C:\Users\Austin Felipe\.gradle\caches\transforms-1\files-1.1\firebase-iid-12.0.1.aar\55f867a5d5e1f2e268d4d5b22e3e777b\AndroidManifest.xml:38:13-73
	android:name
		ADDED from [com.google.firebase:firebase-iid:12.0.1] C:\Users\Austin Felipe\.gradle\caches\transforms-1\files-1.1\firebase-iid-12.0.1.aar\55f867a5d5e1f2e268d4d5b22e3e777b\AndroidManifest.xml:36:13-78
intent-filter#${applicationId}+com.google.android.c2dm.intent.RECEIVE
ADDED from [com.google.firebase:firebase-iid:12.0.1] C:\Users\Austin Felipe\.gradle\caches\transforms-1\files-1.1\firebase-iid-12.0.1.aar\55f867a5d5e1f2e268d4d5b22e3e777b\AndroidManifest.xml:39:13-43:29
intent-filter#chatmoveleiros.moveleiros.com+com.google.android.c2dm.intent.RECEIVE
ADDED from [com.google.firebase:firebase-iid:12.0.1] C:\Users\Austin Felipe\.gradle\caches\transforms-1\files-1.1\firebase-iid-12.0.1.aar\55f867a5d5e1f2e268d4d5b22e3e777b\AndroidManifest.xml:39:13-43:29
action#com.google.android.c2dm.intent.RECEIVE
ADDED from [com.google.firebase:firebase-iid:12.0.1] C:\Users\Austin Felipe\.gradle\caches\transforms-1\files-1.1\firebase-iid-12.0.1.aar\55f867a5d5e1f2e268d4d5b22e3e777b\AndroidManifest.xml:40:17-81
	android:name
		ADDED from [com.google.firebase:firebase-iid:12.0.1] C:\Users\Austin Felipe\.gradle\caches\transforms-1\files-1.1\firebase-iid-12.0.1.aar\55f867a5d5e1f2e268d4d5b22e3e777b\AndroidManifest.xml:40:25-78
category#${applicationId}
ADDED from [com.google.firebase:firebase-iid:12.0.1] C:\Users\Austin Felipe\.gradle\caches\transforms-1\files-1.1\firebase-iid-12.0.1.aar\55f867a5d5e1f2e268d4d5b22e3e777b\AndroidManifest.xml:42:17-61
	android:name
		ADDED from [com.google.firebase:firebase-iid:12.0.1] C:\Users\Austin Felipe\.gradle\caches\transforms-1\files-1.1\firebase-iid-12.0.1.aar\55f867a5d5e1f2e268d4d5b22e3e777b\AndroidManifest.xml:42:27-58
category#chatmoveleiros.moveleiros.com
ADDED from [com.google.firebase:firebase-iid:12.0.1] C:\Users\Austin Felipe\.gradle\caches\transforms-1\files-1.1\firebase-iid-12.0.1.aar\55f867a5d5e1f2e268d4d5b22e3e777b\AndroidManifest.xml:42:17-61
	android:name
		ADDED from [com.google.firebase:firebase-iid:12.0.1] C:\Users\Austin Felipe\.gradle\caches\transforms-1\files-1.1\firebase-iid-12.0.1.aar\55f867a5d5e1f2e268d4d5b22e3e777b\AndroidManifest.xml:42:27-58
service#com.google.firebase.iid.FirebaseInstanceIdService
ADDED from [com.google.firebase:firebase-iid:12.0.1] C:\Users\Austin Felipe\.gradle\caches\transforms-1\files-1.1\firebase-iid-12.0.1.aar\55f867a5d5e1f2e268d4d5b22e3e777b\AndroidManifest.xml:50:9-56:19
	android:exported
		ADDED from [com.google.firebase:firebase-iid:12.0.1] C:\Users\Austin Felipe\.gradle\caches\transforms-1\files-1.1\firebase-iid-12.0.1.aar\55f867a5d5e1f2e268d4d5b22e3e777b\AndroidManifest.xml:52:13-36
	android:name
		ADDED from [com.google.firebase:firebase-iid:12.0.1] C:\Users\Austin Felipe\.gradle\caches\transforms-1\files-1.1\firebase-iid-12.0.1.aar\55f867a5d5e1f2e268d4d5b22e3e777b\AndroidManifest.xml:51:13-77
provider#com.google.firebase.provider.FirebaseInitProvider
ADDED from [com.google.firebase:firebase-common:12.0.1] C:\Users\Austin Felipe\.gradle\caches\transforms-1\files-1.1\firebase-common-12.0.1.aar\11291156a855e879758037b4e2a9f0d8\AndroidManifest.xml:8:9-12:39
	android:authorities
		ADDED from [com.google.firebase:firebase-common:12.0.1] C:\Users\Austin Felipe\.gradle\caches\transforms-1\files-1.1\firebase-common-12.0.1.aar\11291156a855e879758037b4e2a9f0d8\AndroidManifest.xml:10:13-72
	android:exported
		ADDED from [com.google.firebase:firebase-common:12.0.1] C:\Users\Austin Felipe\.gradle\caches\transforms-1\files-1.1\firebase-common-12.0.1.aar\11291156a855e879758037b4e2a9f0d8\AndroidManifest.xml:11:13-37
	android:initOrder
		ADDED from [com.google.firebase:firebase-common:12.0.1] C:\Users\Austin Felipe\.gradle\caches\transforms-1\files-1.1\firebase-common-12.0.1.aar\11291156a855e879758037b4e2a9f0d8\AndroidManifest.xml:12:13-36
	android:name
		ADDED from [com.google.firebase:firebase-common:12.0.1] C:\Users\Austin Felipe\.gradle\caches\transforms-1\files-1.1\firebase-common-12.0.1.aar\11291156a855e879758037b4e2a9f0d8\AndroidManifest.xml:9:13-77
meta-data#com.google.android.gms.version
ADDED from [com.google.android.gms:play-services-basement:12.0.1] C:\Users\Austin Felipe\.gradle\caches\transforms-1\files-1.1\play-services-basement-12.0.1.aar\3adea1be03db2cbe777bd1a7f27ce66d\AndroidManifest.xml:23:9-25:69
	android:value
		ADDED from [com.google.android.gms:play-services-basement:12.0.1] C:\Users\Austin Felipe\.gradle\caches\transforms-1\files-1.1\play-services-basement-12.0.1.aar\3adea1be03db2cbe777bd1a7f27ce66d\AndroidManifest.xml:25:13-66
	android:name
		ADDED from [com.google.android.gms:play-services-basement:12.0.1] C:\Users\Austin Felipe\.gradle\caches\transforms-1\files-1.1\play-services-basement-12.0.1.aar\3adea1be03db2cbe777bd1a7f27ce66d\AndroidManifest.xml:24:13-58
meta-data#android.support.VERSION
ADDED from [com.android.support:support-v4:26.1.0] C:\Users\Austin Felipe\.gradle\caches\transforms-1\files-1.1\support-v4-26.1.0.aar\3450bc25881d94264f687789577a7b6c\AndroidManifest.xml:26:9-28:38
MERGED from [com.android.support:support-media-compat:26.1.0] C:\Users\Austin Felipe\.gradle\caches\transforms-1\files-1.1\support-media-compat-26.1.0.aar\55f97cd12366c211c1317e6782d8d2e9\AndroidManifest.xml:26:9-28:38
MERGED from [com.android.support:support-media-compat:26.1.0] C:\Users\Austin Felipe\.gradle\caches\transforms-1\files-1.1\support-media-compat-26.1.0.aar\55f97cd12366c211c1317e6782d8d2e9\AndroidManifest.xml:26:9-28:38
MERGED from [com.android.support:support-fragment:26.1.0] C:\Users\Austin Felipe\.gradle\caches\transforms-1\files-1.1\support-fragment-26.1.0.aar\1515ad95a0a1764d9d64e052ba83826f\AndroidManifest.xml:26:9-28:38
MERGED from [com.android.support:support-fragment:26.1.0] C:\Users\Austin Felipe\.gradle\caches\transforms-1\files-1.1\support-fragment-26.1.0.aar\1515ad95a0a1764d9d64e052ba83826f\AndroidManifest.xml:26:9-28:38
MERGED from [com.android.support:support-core-utils:26.1.0] C:\Users\Austin Felipe\.gradle\caches\transforms-1\files-1.1\support-core-utils-26.1.0.aar\540e9286b6b98f84c2f13994d144de56\AndroidManifest.xml:26:9-28:38
MERGED from [com.android.support:support-core-utils:26.1.0] C:\Users\Austin Felipe\.gradle\caches\transforms-1\files-1.1\support-core-utils-26.1.0.aar\540e9286b6b98f84c2f13994d144de56\AndroidManifest.xml:26:9-28:38
MERGED from [com.android.support:support-core-ui:26.1.0] C:\Users\Austin Felipe\.gradle\caches\transforms-1\files-1.1\support-core-ui-26.1.0.aar\ff5ace8f00bc04ef9094f5e6c1f71a76\AndroidManifest.xml:26:9-28:38
MERGED from [com.android.support:support-core-ui:26.1.0] C:\Users\Austin Felipe\.gradle\caches\transforms-1\files-1.1\support-core-ui-26.1.0.aar\ff5ace8f00bc04ef9094f5e6c1f71a76\AndroidManifest.xml:26:9-28:38
MERGED from [com.android.support:support-compat:26.1.0] C:\Users\Austin Felipe\.gradle\caches\transforms-1\files-1.1\support-compat-26.1.0.aar\07f74224aee242f70fa1b0615c801bbd\AndroidManifest.xml:26:9-28:38
MERGED from [com.android.support:support-compat:26.1.0] C:\Users\Austin Felipe\.gradle\caches\transforms-1\files-1.1\support-compat-26.1.0.aar\07f74224aee242f70fa1b0615c801bbd\AndroidManifest.xml:26:9-28:38
	android:value
		ADDED from [com.android.support:support-v4:26.1.0] C:\Users\Austin Felipe\.gradle\caches\transforms-1\files-1.1\support-v4-26.1.0.aar\3450bc25881d94264f687789577a7b6c\AndroidManifest.xml:28:13-35
	android:name
		ADDED from [com.android.support:support-v4:26.1.0] C:\Users\Austin Felipe\.gradle\caches\transforms-1\files-1.1\support-v4-26.1.0.aar\3450bc25881d94264f687789577a7b6c\AndroidManifest.xml:27:13-51
meta-data#android.arch.lifecycle.VERSION
ADDED from [android.arch.lifecycle:runtime:1.0.0] C:\Users\Austin Felipe\.gradle\caches\transforms-1\files-1.1\runtime-1.0.0.aar\98255a8445730bbe6be2b5f6c207886a\AndroidManifest.xml:25:9-27:47
	android:value
		ADDED from [android.arch.lifecycle:runtime:1.0.0] C:\Users\Austin Felipe\.gradle\caches\transforms-1\files-1.1\runtime-1.0.0.aar\98255a8445730bbe6be2b5f6c207886a\AndroidManifest.xml:27:13-44
	android:name
		ADDED from [android.arch.lifecycle:runtime:1.0.0] C:\Users\Austin Felipe\.gradle\caches\transforms-1\files-1.1\runtime-1.0.0.aar\98255a8445730bbe6be2b5f6c207886a\AndroidManifest.xml:26:13-58
